module gitlab.com/deltabyte/aws-mfa

go 1.19

require (
	github.com/aws/aws-sdk-go-v2 v1.16.11
	github.com/aws/aws-sdk-go-v2/config v1.17.1
	github.com/aws/aws-sdk-go-v2/service/sts v1.16.13
	gopkg.in/ini.v1 v1.67.0
)

require (
	github.com/aws/aws-sdk-go-v2/credentials v1.12.14 // indirect
	github.com/aws/aws-sdk-go-v2/feature/ec2/imds v1.12.12 // indirect
	github.com/aws/aws-sdk-go-v2/internal/configsources v1.1.18 // indirect
	github.com/aws/aws-sdk-go-v2/internal/endpoints/v2 v2.4.12 // indirect
	github.com/aws/aws-sdk-go-v2/internal/ini v1.3.19 // indirect
	github.com/aws/aws-sdk-go-v2/service/internal/presigned-url v1.9.12 // indirect
	github.com/aws/aws-sdk-go-v2/service/sso v1.11.17 // indirect
	github.com/aws/smithy-go v1.12.1 // indirect
	github.com/davecgh/go-spew v1.1.1 // indirect
	github.com/mattn/go-isatty v0.0.14 // indirect
	github.com/stretchr/testify v1.7.1 // indirect
	golang.org/x/sys v0.0.0-20220520151302-bc2c85ada10a // indirect
	golang.org/x/term v0.0.0-20220526004731-065cf7ba2467 // indirect
	gopkg.in/yaml.v3 v3.0.0 // indirect
)

require (
	github.com/Songmu/prompter v0.5.1
	github.com/mitchellh/go-homedir v1.1.0
)
